<?xml version="1.0" encoding="UTF-8" standalone="no"?>
<!-- Created with Inkscape (http://www.inkscape.org/) -->

<svg
   xmlns:dc="http://purl.org/dc/elements/1.1/"
   xmlns:cc="http://creativecommons.org/ns#"
   xmlns:rdf="http://www.w3.org/1999/02/22-rdf-syntax-ns#"
   xmlns:svg="http://www.w3.org/2000/svg"
   xmlns="http://www.w3.org/2000/svg"
   xmlns:sodipodi="http://sodipodi.sourceforge.net/DTD/sodipodi-0.dtd"
   xmlns:inkscape="http://www.inkscape.org/namespaces/inkscape"
   width="210mm"
   height="297mm"
   viewBox="0 0 210 297"
   version="1.1"
   id="svg8"
   inkscape:version="0.92.2 5c3e80d, 2017-08-06"
   sodipodi:docname="mpi-rationale-sfc.svg">
  <defs
     id="defs2" />
  <sodipodi:namedview
     id="base"
     pagecolor="#ffffff"
     bordercolor="#666666"
     borderopacity="1.0"
     inkscape:pageopacity="0.0"
     inkscape:pageshadow="2"
     inkscape:zoom="0.7"
     inkscape:cx="400"
     inkscape:cy="560"
     inkscape:document-units="mm"
     inkscape:current-layer="layer1"
     showgrid="false"
     inkscape:window-width="1920"
     inkscape:window-height="1015"
     inkscape:window-x="0"
     inkscape:window-y="0"
     inkscape:window-maximized="1" />
  <metadata
     id="metadata5">
    <rdf:RDF>
      <cc:Work
         rdf:about="">
        <dc:format>image/svg+xml</dc:format>
        <dc:type
           rdf:resource="http://purl.org/dc/dcmitype/StillImage" />
        <dc:title></dc:title>
      </cc:Work>
    </rdf:RDF>
  </metadata>
  <g
     inkscape:label="Layer 1"
     inkscape:groupmode="layer"
     id="layer1">
    <circle
       style="opacity:0.66799999;fill:none;fill-opacity:0.37777782;stroke:#999999;stroke-width:2;stroke-linecap:round;stroke-miterlimit:4;stroke-dasharray:none;stroke-dashoffset:0;stroke-opacity:1"
       id="path10"
       cx="107.72321"
       cy="22.211309"
       r="8.6934528" />
    <circle
       style="opacity:0.66799999;fill:none;fill-opacity:0.37777782;stroke:#999999;stroke-width:2;stroke-linecap:round;stroke-miterlimit:4;stroke-dasharray:none;stroke-dashoffset:0;stroke-opacity:1"
       id="path10-3"
       cx="54.050594"
       cy="54.339287"
       r="8.6934528" />
    <circle
       style="opacity:0.66799999;fill:none;fill-opacity:0.37777782;stroke:#999999;stroke-width:2;stroke-linecap:round;stroke-miterlimit:4;stroke-dasharray:none;stroke-dashoffset:0;stroke-opacity:1"
       id="path10-3-6"
       cx="106.58929"
       cy="54.717262"
       r="8.6934528" />
    <circle
       style="opacity:0.66799999;fill:none;fill-opacity:0.37777782;stroke:#999999;stroke-width:2;stroke-linecap:round;stroke-miterlimit:4;stroke-dasharray:none;stroke-dashoffset:0;stroke-opacity:1"
       id="path10-3-7"
       cx="162.15178"
       cy="54.717258"
       r="8.6934528" />
    <circle
       style="opacity:0.66799999;fill:none;fill-opacity:0.37777782;stroke:#999999;stroke-width:2;stroke-linecap:round;stroke-miterlimit:4;stroke-dasharray:none;stroke-dashoffset:0;stroke-opacity:1"
       id="path10-3-5"
       cx="86.556549"
       cy="90.058037"
       r="8.6934528" />
    <circle
       style="opacity:0.66799999;fill:none;fill-opacity:0.37777782;stroke:#999999;stroke-width:2;stroke-linecap:round;stroke-miterlimit:4;stroke-dasharray:none;stroke-dashoffset:0;stroke-opacity:1"
       id="path10-3-6-3"
       cx="106.58929"
       cy="90.436005"
       r="8.6934528" />
    <circle
       style="opacity:0.66799999;fill:none;fill-opacity:0.37777782;stroke:#999999;stroke-width:2;stroke-linecap:round;stroke-miterlimit:4;stroke-dasharray:none;stroke-dashoffset:0;stroke-opacity:1"
       id="path10-3-7-5"
       cx="126.62202"
       cy="90.436005"
       r="8.6934528" />
    <circle
       style="opacity:0.66799999;fill:none;fill-opacity:0.37777782;stroke:#999999;stroke-width:2;stroke-linecap:round;stroke-miterlimit:4;stroke-dasharray:none;stroke-dashoffset:0;stroke-opacity:1"
       id="path10-3-5-6"
       cx="156.86012"
       cy="90.436012"
       r="8.6934528" />
    <circle
       style="opacity:0.66799999;fill:none;fill-opacity:0.37777782;stroke:#999999;stroke-width:2;stroke-linecap:round;stroke-miterlimit:4;stroke-dasharray:none;stroke-dashoffset:0;stroke-opacity:1"
       id="path10-3-6-3-2"
       cx="176.89285"
       cy="90.81398"
       r="8.6934528" />
    <circle
       style="opacity:0.66799999;fill:none;fill-opacity:0.37777782;stroke:#999999;stroke-width:2;stroke-linecap:round;stroke-miterlimit:4;stroke-dasharray:none;stroke-dashoffset:0;stroke-opacity:1"
       id="path10-3-7-5-9"
       cx="196.92558"
       cy="90.81398"
       r="8.6934528" />
    <circle
       style="opacity:0.66799999;fill:none;fill-opacity:0.37777782;stroke:#999999;stroke-width:2;stroke-linecap:round;stroke-miterlimit:4;stroke-dasharray:none;stroke-dashoffset:0;stroke-opacity:1"
       id="path10-3-5-1"
       cx="15.119047"
       cy="90.43602"
       r="8.6934528" />
    <circle
       style="opacity:0.66799999;fill:none;fill-opacity:0.37777782;stroke:#999999;stroke-width:2;stroke-linecap:round;stroke-miterlimit:4;stroke-dasharray:none;stroke-dashoffset:0;stroke-opacity:1"
       id="path10-3-6-3-27"
       cx="35.151794"
       cy="90.813988"
       r="8.6934528" />
    <circle
       style="opacity:0.66799999;fill:none;fill-opacity:0.37777782;stroke:#999999;stroke-width:2;stroke-linecap:round;stroke-miterlimit:4;stroke-dasharray:none;stroke-dashoffset:0;stroke-opacity:1"
       id="path10-3-7-5-0"
       cx="55.184525"
       cy="90.813988"
       r="8.6934528" />
    <path
       style="fill:none;fill-rule:evenodd;stroke:#000000;stroke-width:0.26458332px;stroke-linecap:butt;stroke-linejoin:miter;stroke-opacity:1"
       d="M 61.988093,48.291665 100.16369,27.880953"
       id="path130"
       inkscape:connector-curvature="0" />
    <path
       style="fill:none;fill-rule:evenodd;stroke:#000000;stroke-width:0.26458332px;stroke-linecap:butt;stroke-linejoin:miter;stroke-opacity:1"
       d="M 106.58928,32.038689 V 45.267856"
       id="path132"
       inkscape:connector-curvature="0" />
    <path
       style="fill:none;fill-rule:evenodd;stroke:#000000;stroke-width:0.26458332px;stroke-linecap:butt;stroke-linejoin:miter;stroke-opacity:1"
       d="m 115.66071,28.258928 38.93155,19.654761"
       id="path134"
       inkscape:connector-curvature="0" />
    <path
       style="fill:none;fill-rule:evenodd;stroke:#000000;stroke-width:0.26458332px;stroke-linecap:butt;stroke-linejoin:miter;stroke-opacity:1"
       d="M 46.113094,61.142855 18.520833,81.931546"
       id="path136"
       inkscape:connector-curvature="0" />
    <path
       style="fill:none;fill-rule:evenodd;stroke:#000000;stroke-width:0.26458332px;stroke-linecap:butt;stroke-linejoin:miter;stroke-opacity:1"
       d="m 51.423755,64.026218 -15.875,17.311312"
       id="path138"
       inkscape:connector-curvature="0"
       sodipodi:nodetypes="cc" />
    <path
       style="fill:none;fill-rule:evenodd;stroke:#000000;stroke-width:0.26458332px;stroke-linecap:butt;stroke-linejoin:miter;stroke-opacity:1"
       d="M 56.847824,64.907019 56.741725,81.149253"
       id="path138-9"
       inkscape:connector-curvature="0"
       sodipodi:nodetypes="cc" />
    <path
       style="fill:none;fill-rule:evenodd;stroke:#000000;stroke-width:0.2659848px;stroke-linecap:butt;stroke-linejoin:miter;stroke-opacity:1"
       d="m 168.16425,60.495633 27.88534,20.788692"
       id="path136-3"
       inkscape:connector-curvature="0" />
    <path
       style="fill:none;fill-rule:evenodd;stroke:#000000;stroke-width:0.2659848px;stroke-linecap:butt;stroke-linejoin:miter;stroke-opacity:1"
       d="m 162.79718,63.378997 16.04363,17.311312"
       id="path138-6"
       inkscape:connector-curvature="0"
       sodipodi:nodetypes="cc" />
    <path
       style="fill:none;fill-rule:evenodd;stroke:#000000;stroke-width:0.2659848px;stroke-linecap:butt;stroke-linejoin:miter;stroke-opacity:1"
       d="m 157.3155,64.259797 0.10723,16.242235"
       id="path138-9-0"
       inkscape:connector-curvature="0"
       sodipodi:nodetypes="cc" />
    <path
       style="fill:none;fill-rule:evenodd;stroke:#000000;stroke-width:0.26458332px;stroke-linecap:butt;stroke-linejoin:miter;stroke-opacity:1"
       d="M 87.931674,79.442603 101.29515,63.139163"
       id="path176"
       inkscape:connector-curvature="0" />
    <path
       style="fill:none;fill-rule:evenodd;stroke:#000000;stroke-width:0.26458332px;stroke-linecap:butt;stroke-linejoin:miter;stroke-opacity:1"
       d="M 106.90781,66.079128 V 80.511681"
       id="path180"
       inkscape:connector-curvature="0" />
    <path
       style="fill:none;fill-rule:evenodd;stroke:#000000;stroke-width:0.26458332px;stroke-linecap:butt;stroke-linejoin:miter;stroke-opacity:1"
       d="m 113.58955,62.871894 9.35443,18.708865"
       id="path182"
       inkscape:connector-curvature="0" />
    <path
       style="opacity:0.66799999;fill:#0000ff;fill-opacity:0.37777782;stroke:#999999;stroke-width:10.79865074;stroke-linecap:round;stroke-miterlimit:4;stroke-dasharray:none;stroke-dashoffset:0;stroke-opacity:1"
       d="m 193.43877,231.67257 c -11.79497,-5.11496 -17.73813,-15.19165 -16.88277,-28.62489 0.68587,-10.77142 5.49652,-17.93126 15.47237,-23.028 21.80111,-11.13836 46.33314,9.65613 39.30635,33.3179 -4.74741,15.98626 -22.97536,24.80539 -37.89595,18.33499 z"
       id="path184"
       inkscape:connector-curvature="0"
       transform="scale(0.26458333)" />
    <path
       style="fill:none;fill-rule:evenodd;stroke:#000000;stroke-width:0.26458332px;stroke-linecap:butt;stroke-linejoin:miter;stroke-opacity:1"
       d="m 2.6458333,83.065476 20.7886907,19.654764 -0.755953,-0.37798 0.377976,-0.37798"
       id="path230"
       inkscape:connector-curvature="0" />
    <path
       style="fill:none;fill-rule:evenodd;stroke:#000000;stroke-width:0.26458332px;stroke-linecap:butt;stroke-linejoin:miter;stroke-opacity:1"
       d="M -1.511905,101.96428 18.520833,81.931546"
       id="path243"
       inkscape:connector-curvature="0" />
    <path
       style="opacity:0.66799999;fill:#ff2a2a;fill-opacity:0.37777782;stroke:#999999;stroke-width:10.79865074;stroke-linecap:round;stroke-miterlimit:4;stroke-dasharray:none;stroke-dashoffset:0;stroke-opacity:1"
       d="m 392.0102,233.10114 c -11.79497,-5.11496 -17.73813,-15.19165 -16.88277,-28.62489 0.68587,-10.77142 5.49652,-17.93125 15.47236,-23.02799 21.80112,-11.13837 46.33315,9.65612 39.30636,33.31789 -4.74741,15.98626 -22.97536,24.80539 -37.89595,18.33499 z"
       id="path263"
       inkscape:connector-curvature="0"
       transform="scale(0.26458333)" />
    <path
       style="opacity:0.66799999;fill:#6600ff;fill-opacity:0.37777782;stroke:#999999;stroke-width:10.79865074;stroke-linecap:round;stroke-miterlimit:4;stroke-dasharray:none;stroke-dashoffset:0;stroke-opacity:1"
       d="m 311.77127,364.11028 c -16.89219,-10.71272 -16.89219,-36.75419 0,-47.4669 10.90238,-6.91409 28.26351,-5.02141 36.12789,3.93858 9.74102,11.09807 9.74102,28.49166 0,39.58974 -7.86438,8.95999 -25.22551,10.85266 -36.12789,3.93858 z"
       id="path265"
       inkscape:connector-curvature="0"
       transform="scale(0.26458333)" />
    <path
       style="opacity:0.66799999;fill:#ff2a2a;fill-opacity:0.37777782;stroke:#999999;stroke-width:10.79865074;stroke-linecap:round;stroke-miterlimit:4;stroke-dasharray:none;stroke-dashoffset:0;stroke-opacity:1"
       d="m 387.48556,365.53885 c -16.8922,-10.71271 -16.8922,-36.75419 0,-47.4669 10.90237,-6.91408 28.26351,-5.02141 36.12788,3.93858 9.74102,11.09807 9.74102,28.49166 0,39.58974 -7.86437,8.95999 -25.22551,10.85266 -36.12788,3.93858 z"
       id="path267"
       inkscape:connector-curvature="0"
       transform="scale(0.26458333)" />
    <path
       style="opacity:0.66799999;fill:#ff2a2a;fill-opacity:0.37777782;stroke:#999999;stroke-width:10.79865074;stroke-linecap:round;stroke-miterlimit:4;stroke-dasharray:none;stroke-dashoffset:0;stroke-opacity:1"
       d="m 463.19984,365.53885 c -16.89219,-10.71271 -16.89219,-36.75419 0,-47.4669 10.90238,-6.91408 28.26351,-5.02141 36.12789,3.93858 9.74102,11.09807 9.74102,28.49166 0,39.58974 -7.86438,8.95999 -25.22551,10.85266 -36.12789,3.93858 z"
       id="path269"
       inkscape:connector-curvature="0"
       transform="scale(0.26458333)" />
    <path
       style="opacity:0.66799999;fill:#00ff00;fill-opacity:0.37777782;stroke:#999999;stroke-width:10.79865074;stroke-linecap:round;stroke-miterlimit:4;stroke-dasharray:none;stroke-dashoffset:0;stroke-opacity:1"
       d="m 602.0102,233.10114 c -11.79497,-5.11496 -17.73813,-15.19165 -16.88277,-28.62489 0.68587,-10.77142 5.49652,-17.93125 15.47236,-23.02799 21.80112,-11.13837 46.33315,9.65612 39.30636,33.31789 -4.74741,15.98626 -22.97536,24.80539 -37.89595,18.33499 z"
       id="path279"
       inkscape:connector-curvature="0"
       transform="scale(0.26458333)" />
    <path
       style="opacity:0.66799999;fill:#d40055;fill-opacity:0.37777782;stroke:#999999;stroke-width:10.79865074;stroke-linecap:round;stroke-miterlimit:4;stroke-dasharray:none;stroke-dashoffset:0;stroke-opacity:1"
       d="m 577.48556,365.53885 c -16.8922,-10.71271 -16.8922,-36.75419 0,-47.4669 10.90237,-6.91408 28.26351,-5.02141 36.12788,3.93858 9.74102,11.09807 9.74102,28.49166 0,39.58974 -7.86437,8.95999 -25.22551,10.85266 -36.12788,3.93858 z"
       id="path281"
       inkscape:connector-curvature="0"
       transform="scale(0.26458333)" />
    <path
       style="opacity:0.66799999;fill:#00ff00;fill-opacity:0.37777782;stroke:#999999;stroke-width:10.79865074;stroke-linecap:round;stroke-miterlimit:4;stroke-dasharray:none;stroke-dashoffset:0;stroke-opacity:1"
       d="m 653.19984,366.96742 c -16.89219,-10.71271 -16.89219,-36.75419 0,-47.4669 10.90238,-6.91408 28.26351,-5.02141 36.12789,3.93858 9.74102,11.09807 9.74102,28.49167 0,39.58974 -7.86438,8.95999 -25.22551,10.85266 -36.12789,3.93858 z"
       id="path283"
       inkscape:connector-curvature="0"
       transform="scale(0.26458333)" />
    <path
       style="opacity:0.66799999;fill:#0000ff;fill-opacity:0.37777782;stroke:#999999;stroke-width:10.79865074;stroke-linecap:round;stroke-miterlimit:4;stroke-dasharray:none;stroke-dashoffset:0;stroke-opacity:1"
       d="m 193.19984,366.96742 c -16.89219,-10.71271 -16.89219,-36.75419 0,-47.4669 10.90238,-6.91408 28.26351,-5.02141 36.12789,3.93858 9.74102,11.09807 9.74102,28.49167 0,39.58974 -7.86438,8.95999 -25.22551,10.85266 -36.12789,3.93858 z"
       id="path285"
       inkscape:connector-curvature="0"
       transform="scale(0.26458333)" />
    <path
       style="opacity:0.66799999;fill:#0000ff;fill-opacity:0.37777782;stroke:#999999;stroke-width:10.79865074;stroke-linecap:round;stroke-miterlimit:4;stroke-dasharray:none;stroke-dashoffset:0;stroke-opacity:1"
       d="m 117.48556,366.96742 c -16.8922,-10.71271 -16.8922,-36.75419 0,-47.4669 10.90237,-6.91408 28.26351,-5.02141 36.12788,3.93858 9.74102,11.09807 9.74102,28.49167 0,39.58974 -7.86437,8.95999 -25.22551,10.85266 -36.12788,3.93858 z"
       id="path287"
       inkscape:connector-curvature="0"
       transform="scale(0.26458333)" />
    <path
       style="opacity:0.66799999;fill:#2aff2a;fill-opacity:0.37777782;stroke:#999999;stroke-width:2.85714293;stroke-linecap:round;stroke-miterlimit:4;stroke-dasharray:none;stroke-dashoffset:0;stroke-opacity:1"
       d="m 193.22794,96.904475 c -4.46939,-2.834404 -4.46939,-9.724546 0,-12.558951 2.88459,-1.82935 7.47805,-1.328581 9.55884,1.042083 2.57731,2.936364 2.57731,7.538421 0,10.474786 -2.08079,2.370664 -6.67425,2.871433 -9.55884,1.042082 z"
       id="path283-6"
       inkscape:connector-curvature="0" />
  </g>
</svg>
